# 3ds Max Wavefront OBJ Exporter v0.97b - (c)2007 guruware
# File Created: 11.05.2014 20:23:22

#
# object body
#

v  0.5000 1.0000 0.5000
v  0.0000 0.0000 1.0000
v  1.0000 0.0000 1.0000
v  1.0000 0.0000 -0.0000
v  0.0000 0.0000 -0.0000
# 5 vertices

vn 0.0000 0.4472 0.8945
vn 0.8945 0.4472 -0.0000
vn 0.0000 0.4472 -0.8945
vn -0.8945 0.4472 -0.0000
# 4 vertex normals

vt 0.5000 1.0000 0.0000
vt 0.0000 0.0000 0.0000
vt 1.0000 0.0000 0.0000
# 3 texture coords

g body
f 1/1/1 2/2/1 3/3/1 
f 1/1/2 3/2/2 4/3/2 
f 1/1/3 4/2/3 5/3/3 
f 1/1/4 5/2/4 2/3/4 
# 4 faces

#
# object bottom
#

v  0.0000 0.0000 1.0000
v  0.0000 0.0000 -0.0000
v  1.0000 0.0000 -0.0000
v  1.0000 0.0000 1.0000
# 4 vertices

vn 0.0000 -1.0000 -0.0000
# 1 vertex normals

vt 0.0000 0.0000 0.0000
vt 0.0000 1.0000 0.0000
vt 1.0000 1.0000 0.0000
vt 1.0000 0.0000 0.0000
# 4 texture coords

g bottom
f 6/4/5 7/5/5 8/6/5 
f 8/6/5 9/7/5 6/4/5 
# 2 faces

